SM#1153_Task1A/comb_ckt/simulation/qsim/comb_ckt.msim.vcd
$comment
	File created using the following command:
		vcd file comb_ckt.msim.vcd -direction
$end
$date
	Mon Oct 18 22:58:30 2021
$end
$version
	ModelSim Version 10.5b
$end
$timescale
	1ps
$end

$scope module Four_Bit_Comparator_vlg_vec_tst $end
$var reg 4 ! A [3:0] $end
$var reg 4 " B [3:0] $end
$var wire 1 # A_Greater $end
$var wire 1 $ B_Greater $end
$var wire 1 % Equal $end

$scope module i1 $end
$var wire 1 & gnd $end
$var wire 1 ' vcc $end
$var wire 1 ( unknown $end
$var tri1 1 ) devclrn $end
$var tri1 1 * devpor $end
$var tri1 1 + devoe $end
$var wire 1 , A_Greater~output_o $end
$var wire 1 - Equal~output_o $end
$var wire 1 . B_Greater~output_o $end
$var wire 1 / A[3]~input_o $end
$var wire 1 0 A[2]~input_o $end
$var wire 1 1 B[2]~input_o $end
$var wire 1 2 B[3]~input_o $end
$var wire 1 3 A_Greater~2_combout $end
$var wire 1 4 A_Greater~0_combout $end
$var wire 1 5 B[0]~input_o $end
$var wire 1 6 B[1]~input_o $end
$var wire 1 7 A[1]~input_o $end
$var wire 1 8 A[0]~input_o $end
$var wire 1 9 A_Greater~1_combout $end
$var wire 1 : A_Greater~3_combout $end
$var wire 1 ; Equal~0_combout $end
$var wire 1 < Equal~1_combout $end
$var wire 1 = B_Greater~0_combout $end
$var wire 1 > B_Greater~1_combout $end
$var wire 1 ? B_Greater~2_combout $end
$upscope $end
$upscope $end
$enddefinitions $end
#0
$dumpvars
b0 !
b0 "
0#
0$
1%
0&
1'
x(
1)
1*
1+
0,
1-
0.
0/
00
01
02
13
04
05
06
07
08
09
0:
0;
0<
0=
0>
0?
$end
#50000
b1 !
18
1;
19
1<
1:
1,
0-
0%
1#
#100000
b11 !
b1 "
b10 !
15
08
17
#150000
b11 !
18
#200000
b111 !
b11 "
b101 !
b10 "
b100 !
05
16
08
07
10
1>
09
14
03
#250000
b101 !
18
#300000
b111 !
b11 "
b110 !
15
08
17
#350000
b111 !
18
0>
0;
#400000
b1111 !
b111 "
b1011 !
b101 "
b1001 !
b100 "
b1000 !
05
06
11
08
07
00
1/
#450000
b1001 !
18
1;
19
#500000
b1011 !
b101 "
b1010 !
15
08
17
#550000
b1011 !
18
#600000
b1111 !
b111 "
b1101 !
b110 "
b1100 !
05
16
08
07
10
1>
09
#650000
b1101 !
18
#700000
b1111 !
b111 "
b1110 !
15
08
17
#750000
b1111 !
18
0>
0;
#800000
b1111 "
b111 !
b1011 "
b11 !
b1001 "
b1 !
b1000 "
b0 !
08
07
00
0/
05
06
01
12
1=
04
1?
0:
0,
1.
1$
0#
#850000
b1 !
18
1;
19
#900000
b11 !
b1001 "
b10 !
15
08
17
#950000
b11 !
18
